[gd_scene load_steps=4 format=1]

[ext_resource path="res://Scenes/Enemy.gd" type="Script" id=1]
[ext_resource path="res://Scenes/Star.png" type="Texture" id=2]

[sub_resource type="RectangleShape2D" id=1]

custom_solver_bias = 0.0
extents = Vector2( 32, 32 )

[node name="Enemy" type="KinematicBody2D"]

input/pickable = false
shapes/0/shape = SubResource( 1 )
shapes/0/transform = Matrix32( 0.707107, -0.707107, 0.707107, 0.707107, 0, 0 )
shapes/0/trigger = false
collision/layers = 7
collision/mask = 7
collision/margin = 0.08
script/script = ExtResource( 1 )

[node name="Sprite" type="Sprite" parent="."]

transform/rot = 45.0
texture = ExtResource( 2 )

[node name="lol" type="CollisionShape2D" parent="."]

transform/rot = 45.0
shape = SubResource( 1 )
trigger = false
_update_shape_index = 0


