[gd_scene load_steps=4 format=1]

[ext_resource path="res://Scenes/Player.gd" type="Script" id=1]
[ext_resource path="res://Scenes/Player.png" type="Texture" id=2]

[sub_resource type="RectangleShape2D" id=1]

custom_solver_bias = 0.0
extents = Vector2( 16, 30 )

[node name="Player" type="KinematicBody2D"]

input/pickable = false
shapes/0/shape = SubResource( 1 )
shapes/0/transform = Matrix32( 1, 0, 0, 1, 0, -2 )
shapes/0/trigger = false
collision/layers = 1
collision/mask = 1
collision/margin = 0.08
script/script = ExtResource( 1 )

[node name="Sprite" type="Sprite" parent="."]

texture = ExtResource( 2 )

[node name="Rect" type="CollisionShape2D" parent="."]

transform/pos = Vector2( 0, -2 )
shape = SubResource( 1 )
trigger = false
_update_shape_index = 0


